fpga/common/tb/tx_scheduler_w/out.txt
WARNING  cocotb:simulator.py:521 Skipping compilation:/home/scottcs2/Desktop/SR-IOV/SRIOV-NIC/fpga/common/tb/tx_scheduler_w/sim_build/test_tx_scheduler_w-7-4/tx_scheduler_w.vvp
INFO     cocotb:simulator.py:330 Running command: vvp -M /home/scottcs2/.local/lib/python3.8/site-packages/cocotb/libs -m libcocotbvpi_icarus /home/scottcs2/Desktop/SR-IOV/SRIOV-NIC/fpga/common/tb/tx_scheduler_w/sim_build/test_tx_scheduler_w-7-4/tx_scheduler_w.vvp
INFO     cocotb:simulator.py:302      -.--ns INFO     gpi                                ..mbed/gpi_embed.cpp:76   in set_program_name_in_venv        Did not detect Python virtual environment. Using system-wide Python interpreter
INFO     cocotb:simulator.py:302      -.--ns INFO     gpi                                ../gpi/GpiCommon.cpp:101  in gpi_print_registered_impl       VPI registered
INFO     cocotb:simulator.py:302      0.00ns INFO     cocotb                             Running on Icarus Verilog version 11.0 (stable)
INFO     cocotb:simulator.py:302      0.00ns INFO     cocotb                             Running tests with cocotb v1.8.1 from /home/scottcs2/.local/lib/python3.8/site-packages/cocotb
INFO     cocotb:simulator.py:302      0.00ns INFO     cocotb                             Seeding Python random module with 1702570603
INFO     cocotb:simulator.py:302      0.00ns INFO     cocotb.regression                  Found test test_tx_scheduler_w.doorbell3_test_001
INFO     cocotb:simulator.py:302      0.00ns INFO     cocotb.regression                  running doorbell3_test_001 (1/1)
INFO     cocotb:simulator.py:302                                                           Automatically generated test
INFO     cocotb:simulator.py:302      0.00ns INFO     cocotb.tx_scheduler_w.s_axil       AXI lite master (write)
INFO     cocotb:simulator.py:302      0.00ns INFO     cocotb.tx_scheduler_w.s_axil       cocotbext-axi version 0.1.24
INFO     cocotb:simulator.py:302      0.00ns INFO     cocotb.tx_scheduler_w.s_axil       Copyright (c) 2020 Alex Forencich
INFO     cocotb:simulator.py:302      0.00ns INFO     cocotb.tx_scheduler_w.s_axil       https://github.com/alexforencich/cocotbext-axi
INFO     cocotb:simulator.py:302      0.00ns INFO     cocotb.tx_scheduler_w.s_axil       Reset de-asserted
INFO     cocotb:simulator.py:302      0.00ns INFO     cocotb.tx_scheduler_w.s_axil       Reset de-asserted
INFO     cocotb:simulator.py:302      0.00ns INFO     cocotb.tx_scheduler_w.s_axil       Reset de-asserted
INFO     cocotb:simulator.py:302      0.00ns INFO     cocotb.tx_scheduler_w.s_axil       AXI lite master configuration:
INFO     cocotb:simulator.py:302      0.00ns INFO     cocotb.tx_scheduler_w.s_axil         Address width: 16 bits
INFO     cocotb:simulator.py:302      0.00ns INFO     cocotb.tx_scheduler_w.s_axil         Byte size: 8 bits
INFO     cocotb:simulator.py:302      0.00ns INFO     cocotb.tx_scheduler_w.s_axil         Data width: 32 bits (4 bytes)
INFO     cocotb:simulator.py:302      0.00ns INFO     cocotb.tx_scheduler_w.s_axil       AXI lite master signals:
INFO     cocotb:simulator.py:302      0.00ns INFO     cocotb.tx_scheduler_w.s_axil         awaddr width: 16 bits
INFO     cocotb:simulator.py:302      0.00ns INFO     cocotb.tx_scheduler_w.s_axil         awprot width: 3 bits
INFO     cocotb:simulator.py:302      0.00ns INFO     cocotb.tx_scheduler_w.s_axil         awready width: 1 bits
INFO     cocotb:simulator.py:302      0.00ns INFO     cocotb.tx_scheduler_w.s_axil         awvalid width: 1 bits
INFO     cocotb:simulator.py:302      0.00ns INFO     cocotb.tx_scheduler_w.s_axil         wdata width: 32 bits
INFO     cocotb:simulator.py:302      0.00ns INFO     cocotb.tx_scheduler_w.s_axil         wready width: 1 bits
INFO     cocotb:simulator.py:302      0.00ns INFO     cocotb.tx_scheduler_w.s_axil         wstrb width: 4 bits
INFO     cocotb:simulator.py:302      0.00ns INFO     cocotb.tx_scheduler_w.s_axil         wvalid width: 1 bits
INFO     cocotb:simulator.py:302      0.00ns INFO     cocotb.tx_scheduler_w.s_axil         bready width: 1 bits
INFO     cocotb:simulator.py:302      0.00ns INFO     cocotb.tx_scheduler_w.s_axil         bresp width: 2 bits
INFO     cocotb:simulator.py:302      0.00ns INFO     cocotb.tx_scheduler_w.s_axil         bvalid width: 1 bits
INFO     cocotb:simulator.py:302      0.00ns INFO     cocotb.tx_scheduler_w.s_axil       Reset de-asserted
INFO     cocotb:simulator.py:302      0.00ns INFO     cocotb.tx_scheduler_w.s_axil       AXI lite master (read)
INFO     cocotb:simulator.py:302      0.00ns INFO     cocotb.tx_scheduler_w.s_axil       cocotbext-axi version 0.1.24
INFO     cocotb:simulator.py:302      0.00ns INFO     cocotb.tx_scheduler_w.s_axil       Copyright (c) 2020 Alex Forencich
INFO     cocotb:simulator.py:302      0.00ns INFO     cocotb.tx_scheduler_w.s_axil       https://github.com/alexforencich/cocotbext-axi
INFO     cocotb:simulator.py:302      0.00ns INFO     cocotb.tx_scheduler_w.s_axil       Reset de-asserted
INFO     cocotb:simulator.py:302      0.00ns INFO     cocotb.tx_scheduler_w.s_axil       Reset de-asserted
INFO     cocotb:simulator.py:302      0.00ns INFO     cocotb.tx_scheduler_w.s_axil       AXI lite master configuration:
INFO     cocotb:simulator.py:302      0.00ns INFO     cocotb.tx_scheduler_w.s_axil         Address width: 16 bits
INFO     cocotb:simulator.py:302      0.00ns INFO     cocotb.tx_scheduler_w.s_axil         Byte size: 8 bits
INFO     cocotb:simulator.py:302      0.00ns INFO     cocotb.tx_scheduler_w.s_axil         Data width: 32 bits (4 bytes)
INFO     cocotb:simulator.py:302      0.00ns INFO     cocotb.tx_scheduler_w.s_axil       AXI lite master signals:
INFO     cocotb:simulator.py:302      0.00ns INFO     cocotb.tx_scheduler_w.s_axil         araddr width: 16 bits
INFO     cocotb:simulator.py:302      0.00ns INFO     cocotb.tx_scheduler_w.s_axil         arprot width: 3 bits
INFO     cocotb:simulator.py:302      0.00ns INFO     cocotb.tx_scheduler_w.s_axil         arready width: 1 bits
INFO     cocotb:simulator.py:302      0.00ns INFO     cocotb.tx_scheduler_w.s_axil         arvalid width: 1 bits
INFO     cocotb:simulator.py:302      0.00ns INFO     cocotb.tx_scheduler_w.s_axil         rdata width: 32 bits
INFO     cocotb:simulator.py:302      0.00ns INFO     cocotb.tx_scheduler_w.s_axil         rready width: 1 bits
INFO     cocotb:simulator.py:302      0.00ns INFO     cocotb.tx_scheduler_w.s_axil         rresp width: 2 bits
INFO     cocotb:simulator.py:302      0.00ns INFO     cocotb.tx_scheduler_w.s_axil         rvalid width: 1 bits
INFO     cocotb:simulator.py:302      0.00ns INFO     cocotb.tx_scheduler_w.s_axil       Reset de-asserted
INFO     cocotb:simulator.py:302      0.00ns INFO     ..b.tx_scheduler_w.s_axis_doorbell Reset de-asserted
INFO     cocotb:simulator.py:302      0.00ns INFO     ..otb.tx_scheduler_w.m_axis_tx_req Reset de-asserted
INFO     cocotb:simulator.py:302      0.00ns INFO     ..scheduler_w.s_axis_tx_req_status Reset de-asserted
INFO     cocotb:simulator.py:302      4.00ns INFO     cocotb.tx_scheduler_w.s_axil       Reset asserted
INFO     cocotb:simulator.py:302      4.00ns INFO     cocotb.tx_scheduler_w.s_axil       Reset asserted
INFO     cocotb:simulator.py:302      4.00ns INFO     cocotb.tx_scheduler_w.s_axil       Reset asserted
INFO     cocotb:simulator.py:302      4.00ns INFO     cocotb.tx_scheduler_w.s_axil       Reset asserted
INFO     cocotb:simulator.py:302      4.00ns INFO     cocotb.tx_scheduler_w.s_axil       Reset asserted
INFO     cocotb:simulator.py:302      4.00ns INFO     cocotb.tx_scheduler_w.s_axil       Reset asserted
INFO     cocotb:simulator.py:302      4.00ns INFO     cocotb.tx_scheduler_w.s_axil       Reset asserted
INFO     cocotb:simulator.py:302      4.00ns INFO     ..b.tx_scheduler_w.s_axis_doorbell Reset asserted
INFO     cocotb:simulator.py:302      4.00ns INFO     ..otb.tx_scheduler_w.m_axis_tx_req Reset asserted
INFO     cocotb:simulator.py:302      4.00ns INFO     ..scheduler_w.s_axis_tx_req_status Reset asserted
INFO     cocotb:simulator.py:302     12.00ns INFO     cocotb.tx_scheduler_w.s_axil       Reset de-asserted
INFO     cocotb:simulator.py:302     12.00ns INFO     cocotb.tx_scheduler_w.s_axil       Reset de-asserted
INFO     cocotb:simulator.py:302     12.00ns INFO     cocotb.tx_scheduler_w.s_axil       Reset de-asserted
INFO     cocotb:simulator.py:302     12.00ns INFO     cocotb.tx_scheduler_w.s_axil       Reset de-asserted
INFO     cocotb:simulator.py:302     12.00ns INFO     cocotb.tx_scheduler_w.s_axil       Reset de-asserted
INFO     cocotb:simulator.py:302     12.00ns INFO     cocotb.tx_scheduler_w.s_axil       Reset de-asserted
INFO     cocotb:simulator.py:302     12.00ns INFO     cocotb.tx_scheduler_w.s_axil       Reset de-asserted
INFO     cocotb:simulator.py:302     12.00ns INFO     ..b.tx_scheduler_w.s_axis_doorbell Reset de-asserted
INFO     cocotb:simulator.py:302     12.00ns INFO     ..otb.tx_scheduler_w.m_axis_tx_req Reset de-asserted
INFO     cocotb:simulator.py:302     12.00ns INFO     ..scheduler_w.s_axis_tx_req_status Reset de-asserted
INFO     cocotb:simulator.py:302     20.00ns INFO     cocotb.tb                          Test pulse out
INFO     cocotb:simulator.py:302     24.00ns INFO     cocotb.tx_scheduler_w.s_axil       Write start addr: 0x00000000 prot: AxiProt.NONSECURE data: 01 00 00 00
INFO     cocotb:simulator.py:302    156.00ns INFO     cocotb.tx_scheduler_w.s_axil       Write complete addr: 0x00000000 prot: AxiProt.NONSECURE resp: AxiResp.OKAY length: 4
INFO     cocotb:simulator.py:302    156.00ns INFO     cocotb.tx_scheduler_w.s_axil       Read start addr: 0x00000000 prot: AxiProt.NONSECURE length: 4
INFO     cocotb:simulator.py:302    176.00ns INFO     cocotb.tx_scheduler_w.s_axil       Read complete addr: 0x00000000 prot: AxiProt.NONSECURE resp: AxiResp.OKAY data: 01 00 00 00
INFO     cocotb:simulator.py:302    176.00ns INFO     cocotb.tx_scheduler_w.s_axil       Write start addr: 0x00000004 prot: AxiProt.NONSECURE data: 01 00 00 00
INFO     cocotb:simulator.py:302    196.00ns INFO     cocotb.tx_scheduler_w.s_axil       Write complete addr: 0x00000004 prot: AxiProt.NONSECURE resp: AxiResp.OKAY length: 4
INFO     cocotb:simulator.py:302    196.00ns INFO     cocotb.tx_scheduler_w.s_axil       Read start addr: 0x00000004 prot: AxiProt.NONSECURE length: 4
INFO     cocotb:simulator.py:302    216.00ns INFO     cocotb.tx_scheduler_w.s_axil       Read complete addr: 0x00000004 prot: AxiProt.NONSECURE resp: AxiResp.OKAY data: 01 00 00 00
INFO     cocotb:simulator.py:302    216.00ns INFO     cocotb.tx_scheduler_w.s_axil       Write start addr: 0x00000008 prot: AxiProt.NONSECURE data: 01 00 00 00
INFO     cocotb:simulator.py:302    236.00ns INFO     cocotb.tx_scheduler_w.s_axil       Write complete addr: 0x00000008 prot: AxiProt.NONSECURE resp: AxiResp.OKAY length: 4
INFO     cocotb:simulator.py:302    236.00ns INFO     cocotb.tx_scheduler_w.s_axil       Read start addr: 0x00000008 prot: AxiProt.NONSECURE length: 4
INFO     cocotb:simulator.py:302    256.00ns INFO     cocotb.tx_scheduler_w.s_axil       Read complete addr: 0x00000008 prot: AxiProt.NONSECURE resp: AxiResp.OKAY data: 01 00 00 00
INFO     cocotb:simulator.py:302    256.00ns INFO     cocotb.tx_scheduler_w.s_axil       Write start addr: 0x0000000c prot: AxiProt.NONSECURE data: 01 00 00 00
INFO     cocotb:simulator.py:302    276.00ns INFO     cocotb.tx_scheduler_w.s_axil       Write complete addr: 0x0000000c prot: AxiProt.NONSECURE resp: AxiResp.OKAY length: 4
INFO     cocotb:simulator.py:302    276.00ns INFO     cocotb.tx_scheduler_w.s_axil       Read start addr: 0x0000000c prot: AxiProt.NONSECURE length: 4
INFO     cocotb:simulator.py:302    296.00ns INFO     cocotb.tx_scheduler_w.s_axil       Read complete addr: 0x0000000c prot: AxiProt.NONSECURE resp: AxiResp.OKAY data: 01 00 00 00
INFO     cocotb:simulator.py:302    296.00ns INFO     cocotb.tx_scheduler_w.s_axil       Write start addr: 0x00000010 prot: AxiProt.NONSECURE data: 01 00 00 00
INFO     cocotb:simulator.py:302    316.00ns INFO     cocotb.tx_scheduler_w.s_axil       Write complete addr: 0x00000010 prot: AxiProt.NONSECURE resp: AxiResp.OKAY length: 4
INFO     cocotb:simulator.py:302    316.00ns INFO     cocotb.tx_scheduler_w.s_axil       Read start addr: 0x00000010 prot: AxiProt.NONSECURE length: 4
INFO     cocotb:simulator.py:302    336.00ns INFO     cocotb.tx_scheduler_w.s_axil       Read complete addr: 0x00000010 prot: AxiProt.NONSECURE resp: AxiResp.OKAY data: 01 00 00 00
INFO     cocotb:simulator.py:302    336.00ns INFO     cocotb.tx_scheduler_w.s_axil       Write start addr: 0x00000014 prot: AxiProt.NONSECURE data: 01 00 00 00
INFO     cocotb:simulator.py:302    356.00ns INFO     cocotb.tx_scheduler_w.s_axil       Write complete addr: 0x00000014 prot: AxiProt.NONSECURE resp: AxiResp.OKAY length: 4
INFO     cocotb:simulator.py:302    356.00ns INFO     cocotb.tx_scheduler_w.s_axil       Read start addr: 0x00000014 prot: AxiProt.NONSECURE length: 4
INFO     cocotb:simulator.py:302    376.00ns INFO     cocotb.tx_scheduler_w.s_axil       Read complete addr: 0x00000014 prot: AxiProt.NONSECURE resp: AxiResp.OKAY data: 01 00 00 00
INFO     cocotb:simulator.py:302    376.00ns INFO     cocotb.tx_scheduler_w.s_axil       Write start addr: 0x00000018 prot: AxiProt.NONSECURE data: 01 00 00 00
INFO     cocotb:simulator.py:302    396.00ns INFO     cocotb.tx_scheduler_w.s_axil       Write complete addr: 0x00000018 prot: AxiProt.NONSECURE resp: AxiResp.OKAY length: 4
INFO     cocotb:simulator.py:302    396.00ns INFO     cocotb.tx_scheduler_w.s_axil       Read start addr: 0x00000018 prot: AxiProt.NONSECURE length: 4
INFO     cocotb:simulator.py:302    416.00ns INFO     cocotb.tx_scheduler_w.s_axil       Read complete addr: 0x00000018 prot: AxiProt.NONSECURE resp: AxiResp.OKAY data: 01 00 00 00
INFO     cocotb:simulator.py:302    416.00ns INFO     cocotb.tx_scheduler_w.s_axil       Write start addr: 0x0000001c prot: AxiProt.NONSECURE data: 01 00 00 00
INFO     cocotb:simulator.py:302    436.00ns INFO     cocotb.tx_scheduler_w.s_axil       Write complete addr: 0x0000001c prot: AxiProt.NONSECURE resp: AxiResp.OKAY length: 4
INFO     cocotb:simulator.py:302    436.00ns INFO     cocotb.tx_scheduler_w.s_axil       Read start addr: 0x0000001c prot: AxiProt.NONSECURE length: 4
INFO     cocotb:simulator.py:302    456.00ns INFO     cocotb.tx_scheduler_w.s_axil       Read complete addr: 0x0000001c prot: AxiProt.NONSECURE resp: AxiResp.OKAY data: 01 00 00 00
INFO     cocotb:simulator.py:302    456.00ns INFO     cocotb.tx_scheduler_w.s_axil       Write start addr: 0x00000020 prot: AxiProt.NONSECURE data: 01 00 00 00
INFO     cocotb:simulator.py:302    476.00ns INFO     cocotb.tx_scheduler_w.s_axil       Write complete addr: 0x00000020 prot: AxiProt.NONSECURE resp: AxiResp.OKAY length: 4
INFO     cocotb:simulator.py:302    476.00ns INFO     cocotb.tx_scheduler_w.s_axil       Read start addr: 0x00000020 prot: AxiProt.NONSECURE length: 4
INFO     cocotb:simulator.py:302    496.00ns INFO     cocotb.tx_scheduler_w.s_axil       Read complete addr: 0x00000020 prot: AxiProt.NONSECURE resp: AxiResp.OKAY data: 01 00 00 00
INFO     cocotb:simulator.py:302    496.00ns INFO     cocotb.tx_scheduler_w.s_axil       Write start addr: 0x00000024 prot: AxiProt.NONSECURE data: 01 00 00 00
INFO     cocotb:simulator.py:302    516.00ns INFO     cocotb.tx_scheduler_w.s_axil       Write complete addr: 0x00000024 prot: AxiProt.NONSECURE resp: AxiResp.OKAY length: 4
INFO     cocotb:simulator.py:302    516.00ns INFO     cocotb.tx_scheduler_w.s_axil       Read start addr: 0x00000024 prot: AxiProt.NONSECURE length: 4
INFO     cocotb:simulator.py:302    536.00ns INFO     cocotb.tx_scheduler_w.s_axil       Read complete addr: 0x00000024 prot: AxiProt.NONSECURE resp: AxiResp.OKAY data: 01 00 00 00
INFO     cocotb:simulator.py:302    536.00ns INFO     cocotb.tx_scheduler_w.s_axil       Write start addr: 0x00000028 prot: AxiProt.NONSECURE data: 01 00 00 00
INFO     cocotb:simulator.py:302    556.00ns INFO     cocotb.tx_scheduler_w.s_axil       Write complete addr: 0x00000028 prot: AxiProt.NONSECURE resp: AxiResp.OKAY length: 4
INFO     cocotb:simulator.py:302    556.00ns INFO     cocotb.tx_scheduler_w.s_axil       Read start addr: 0x00000028 prot: AxiProt.NONSECURE length: 4
INFO     cocotb:simulator.py:302    576.00ns INFO     cocotb.tx_scheduler_w.s_axil       Read complete addr: 0x00000028 prot: AxiProt.NONSECURE resp: AxiResp.OKAY data: 01 00 00 00
INFO     cocotb:simulator.py:302    576.00ns INFO     cocotb.tx_scheduler_w.s_axil       Write start addr: 0x0000002c prot: AxiProt.NONSECURE data: 01 00 00 00
INFO     cocotb:simulator.py:302    596.00ns INFO     cocotb.tx_scheduler_w.s_axil       Write complete addr: 0x0000002c prot: AxiProt.NONSECURE resp: AxiResp.OKAY length: 4
INFO     cocotb:simulator.py:302    596.00ns INFO     cocotb.tx_scheduler_w.s_axil       Read start addr: 0x0000002c prot: AxiProt.NONSECURE length: 4
INFO     cocotb:simulator.py:302    616.00ns INFO     cocotb.tx_scheduler_w.s_axil       Read complete addr: 0x0000002c prot: AxiProt.NONSECURE resp: AxiResp.OKAY data: 01 00 00 00
INFO     cocotb:simulator.py:302    616.00ns INFO     cocotb.tx_scheduler_w.s_axil       Write start addr: 0x00000030 prot: AxiProt.NONSECURE data: 01 00 00 00
INFO     cocotb:simulator.py:302    636.00ns INFO     cocotb.tx_scheduler_w.s_axil       Write complete addr: 0x00000030 prot: AxiProt.NONSECURE resp: AxiResp.OKAY length: 4
INFO     cocotb:simulator.py:302    636.00ns INFO     cocotb.tx_scheduler_w.s_axil       Read start addr: 0x00000030 prot: AxiProt.NONSECURE length: 4
INFO     cocotb:simulator.py:302    656.00ns INFO     cocotb.tx_scheduler_w.s_axil       Read complete addr: 0x00000030 prot: AxiProt.NONSECURE resp: AxiResp.OKAY data: 01 00 00 00
INFO     cocotb:simulator.py:302    656.00ns INFO     cocotb.tx_scheduler_w.s_axil       Write start addr: 0x00000034 prot: AxiProt.NONSECURE data: 01 00 00 00
INFO     cocotb:simulator.py:302    676.00ns INFO     cocotb.tx_scheduler_w.s_axil       Write complete addr: 0x00000034 prot: AxiProt.NONSECURE resp: AxiResp.OKAY length: 4
INFO     cocotb:simulator.py:302    676.00ns INFO     cocotb.tx_scheduler_w.s_axil       Read start addr: 0x00000034 prot: AxiProt.NONSECURE length: 4
INFO     cocotb:simulator.py:302    696.00ns INFO     cocotb.tx_scheduler_w.s_axil       Read complete addr: 0x00000034 prot: AxiProt.NONSECURE resp: AxiResp.OKAY data: 01 00 00 00
INFO     cocotb:simulator.py:302    696.00ns INFO     cocotb.tx_scheduler_w.s_axil       Write start addr: 0x00000038 prot: AxiProt.NONSECURE data: 01 00 00 00
INFO     cocotb:simulator.py:302    716.00ns INFO     cocotb.tx_scheduler_w.s_axil       Write complete addr: 0x00000038 prot: AxiProt.NONSECURE resp: AxiResp.OKAY length: 4
INFO     cocotb:simulator.py:302    716.00ns INFO     cocotb.tx_scheduler_w.s_axil       Read start addr: 0x00000038 prot: AxiProt.NONSECURE length: 4
INFO     cocotb:simulator.py:302    736.00ns INFO     cocotb.tx_scheduler_w.s_axil       Read complete addr: 0x00000038 prot: AxiProt.NONSECURE resp: AxiResp.OKAY data: 01 00 00 00
INFO     cocotb:simulator.py:302    736.00ns INFO     cocotb.tx_scheduler_w.s_axil       Write start addr: 0x0000003c prot: AxiProt.NONSECURE data: 01 00 00 00
INFO     cocotb:simulator.py:302    756.00ns INFO     cocotb.tx_scheduler_w.s_axil       Write complete addr: 0x0000003c prot: AxiProt.NONSECURE resp: AxiResp.OKAY length: 4
INFO     cocotb:simulator.py:302    756.00ns INFO     cocotb.tx_scheduler_w.s_axil       Read start addr: 0x0000003c prot: AxiProt.NONSECURE length: 4
INFO     cocotb:simulator.py:302    776.00ns INFO     cocotb.tx_scheduler_w.s_axil       Read complete addr: 0x0000003c prot: AxiProt.NONSECURE resp: AxiResp.OKAY data: 01 00 00 00
INFO     cocotb:simulator.py:302    776.00ns INFO     cocotb.tx_scheduler_w.s_axil       Write start addr: 0x00000040 prot: AxiProt.NONSECURE data: 01 00 00 00
INFO     cocotb:simulator.py:302    796.00ns INFO     cocotb.tx_scheduler_w.s_axil       Write complete addr: 0x00000040 prot: AxiProt.NONSECURE resp: AxiResp.OKAY length: 4
INFO     cocotb:simulator.py:302    796.00ns INFO     cocotb.tx_scheduler_w.s_axil       Read start addr: 0x00000040 prot: AxiProt.NONSECURE length: 4
INFO     cocotb:simulator.py:302    816.00ns INFO     cocotb.tx_scheduler_w.s_axil       Read complete addr: 0x00000040 prot: AxiProt.NONSECURE resp: AxiResp.OKAY data: 01 00 00 00
INFO     cocotb:simulator.py:302    816.00ns INFO     cocotb.tx_scheduler_w.s_axil       Write start addr: 0x00000044 prot: AxiProt.NONSECURE data: 01 00 00 00
INFO     cocotb:simulator.py:302    836.00ns INFO     cocotb.tx_scheduler_w.s_axil       Write complete addr: 0x00000044 prot: AxiProt.NONSECURE resp: AxiResp.OKAY length: 4
INFO     cocotb:simulator.py:302    836.00ns INFO     cocotb.tx_scheduler_w.s_axil       Read start addr: 0x00000044 prot: AxiProt.NONSECURE length: 4
INFO     cocotb:simulator.py:302    856.00ns INFO     cocotb.tx_scheduler_w.s_axil       Read complete addr: 0x00000044 prot: AxiProt.NONSECURE resp: AxiResp.OKAY data: 01 00 00 00
INFO     cocotb:simulator.py:302    856.00ns INFO     cocotb.tx_scheduler_w.s_axil       Write start addr: 0x00000048 prot: AxiProt.NONSECURE data: 01 00 00 00
INFO     cocotb:simulator.py:302    876.00ns INFO     cocotb.tx_scheduler_w.s_axil       Write complete addr: 0x00000048 prot: AxiProt.NONSECURE resp: AxiResp.OKAY length: 4
INFO     cocotb:simulator.py:302    876.00ns INFO     cocotb.tx_scheduler_w.s_axil       Read start addr: 0x00000048 prot: AxiProt.NONSECURE length: 4
INFO     cocotb:simulator.py:302    896.00ns INFO     cocotb.tx_scheduler_w.s_axil       Read complete addr: 0x00000048 prot: AxiProt.NONSECURE resp: AxiResp.OKAY data: 01 00 00 00
INFO     cocotb:simulator.py:302    896.00ns INFO     cocotb.tx_scheduler_w.s_axil       Write start addr: 0x0000004c prot: AxiProt.NONSECURE data: 01 00 00 00
INFO     cocotb:simulator.py:302    916.00ns INFO     cocotb.tx_scheduler_w.s_axil       Write complete addr: 0x0000004c prot: AxiProt.NONSECURE resp: AxiResp.OKAY length: 4
INFO     cocotb:simulator.py:302    916.00ns INFO     cocotb.tx_scheduler_w.s_axil       Read start addr: 0x0000004c prot: AxiProt.NONSECURE length: 4
INFO     cocotb:simulator.py:302    936.00ns INFO     cocotb.tx_scheduler_w.s_axil       Read complete addr: 0x0000004c prot: AxiProt.NONSECURE resp: AxiResp.OKAY data: 01 00 00 00
INFO     cocotb:simulator.py:302    936.00ns INFO     cocotb.tx_scheduler_w.s_axil       Write start addr: 0x00000050 prot: AxiProt.NONSECURE data: 01 00 00 00
INFO     cocotb:simulator.py:302    956.00ns INFO     cocotb.tx_scheduler_w.s_axil       Write complete addr: 0x00000050 prot: AxiProt.NONSECURE resp: AxiResp.OKAY length: 4
INFO     cocotb:simulator.py:302    956.00ns INFO     cocotb.tx_scheduler_w.s_axil       Read start addr: 0x00000050 prot: AxiProt.NONSECURE length: 4
INFO     cocotb:simulator.py:302    976.00ns INFO     cocotb.tx_scheduler_w.s_axil       Read complete addr: 0x00000050 prot: AxiProt.NONSECURE resp: AxiResp.OKAY data: 01 00 00 00
INFO     cocotb:simulator.py:302    976.00ns INFO     cocotb.tx_scheduler_w.s_axil       Write start addr: 0x00000054 prot: AxiProt.NONSECURE data: 01 00 00 00
INFO     cocotb:simulator.py:302    996.00ns INFO     cocotb.tx_scheduler_w.s_axil       Write complete addr: 0x00000054 prot: AxiProt.NONSECURE resp: AxiResp.OKAY length: 4
INFO     cocotb:simulator.py:302    996.00ns INFO     cocotb.tx_scheduler_w.s_axil       Read start addr: 0x00000054 prot: AxiProt.NONSECURE length: 4
INFO     cocotb:simulator.py:302   1016.00ns INFO     cocotb.tx_scheduler_w.s_axil       Read complete addr: 0x00000054 prot: AxiProt.NONSECURE resp: AxiResp.OKAY data: 01 00 00 00
INFO     cocotb:simulator.py:302   1016.00ns INFO     cocotb.tx_scheduler_w.s_axil       Write start addr: 0x00000058 prot: AxiProt.NONSECURE data: 01 00 00 00
INFO     cocotb:simulator.py:302   1036.00ns INFO     cocotb.tx_scheduler_w.s_axil       Write complete addr: 0x00000058 prot: AxiProt.NONSECURE resp: AxiResp.OKAY length: 4
INFO     cocotb:simulator.py:302   1036.00ns INFO     cocotb.tx_scheduler_w.s_axil       Read start addr: 0x00000058 prot: AxiProt.NONSECURE length: 4
INFO     cocotb:simulator.py:302   1056.00ns INFO     cocotb.tx_scheduler_w.s_axil       Read complete addr: 0x00000058 prot: AxiProt.NONSECURE resp: AxiResp.OKAY data: 01 00 00 00
INFO     cocotb:simulator.py:302   1056.00ns INFO     cocotb.tx_scheduler_w.s_axil       Write start addr: 0x0000005c prot: AxiProt.NONSECURE data: 01 00 00 00
INFO     cocotb:simulator.py:302   1076.00ns INFO     cocotb.tx_scheduler_w.s_axil       Write complete addr: 0x0000005c prot: AxiProt.NONSECURE resp: AxiResp.OKAY length: 4
INFO     cocotb:simulator.py:302   1076.00ns INFO     cocotb.tx_scheduler_w.s_axil       Read start addr: 0x0000005c prot: AxiProt.NONSECURE length: 4
INFO     cocotb:simulator.py:302   1096.00ns INFO     cocotb.tx_scheduler_w.s_axil       Read complete addr: 0x0000005c prot: AxiProt.NONSECURE resp: AxiResp.OKAY data: 01 00 00 00
INFO     cocotb:simulator.py:302   1096.00ns INFO     cocotb.tx_scheduler_w.s_axil       Write start addr: 0x00000060 prot: AxiProt.NONSECURE data: 01 00 00 00
INFO     cocotb:simulator.py:302   1116.00ns INFO     cocotb.tx_scheduler_w.s_axil       Write complete addr: 0x00000060 prot: AxiProt.NONSECURE resp: AxiResp.OKAY length: 4
INFO     cocotb:simulator.py:302   1116.00ns INFO     cocotb.tx_scheduler_w.s_axil       Read start addr: 0x00000060 prot: AxiProt.NONSECURE length: 4
INFO     cocotb:simulator.py:302   1136.00ns INFO     cocotb.tx_scheduler_w.s_axil       Read complete addr: 0x00000060 prot: AxiProt.NONSECURE resp: AxiResp.OKAY data: 01 00 00 00
INFO     cocotb:simulator.py:302   1136.00ns INFO     cocotb.tx_scheduler_w.s_axil       Write start addr: 0x00000064 prot: AxiProt.NONSECURE data: 01 00 00 00
INFO     cocotb:simulator.py:302   1156.00ns INFO     cocotb.tx_scheduler_w.s_axil       Write complete addr: 0x00000064 prot: AxiProt.NONSECURE resp: AxiResp.OKAY length: 4
INFO     cocotb:simulator.py:302   1156.00ns INFO     cocotb.tx_scheduler_w.s_axil       Read start addr: 0x00000064 prot: AxiProt.NONSECURE length: 4
INFO     cocotb:simulator.py:302   1176.00ns INFO     cocotb.tx_scheduler_w.s_axil       Read complete addr: 0x00000064 prot: AxiProt.NONSECURE resp: AxiResp.OKAY data: 01 00 00 00
INFO     cocotb:simulator.py:302   1176.00ns INFO     cocotb.tx_scheduler_w.s_axil       Write start addr: 0x00000068 prot: AxiProt.NONSECURE data: 01 00 00 00
INFO     cocotb:simulator.py:302   1196.00ns INFO     cocotb.tx_scheduler_w.s_axil       Write complete addr: 0x00000068 prot: AxiProt.NONSECURE resp: AxiResp.OKAY length: 4
INFO     cocotb:simulator.py:302   1196.00ns INFO     cocotb.tx_scheduler_w.s_axil       Read start addr: 0x00000068 prot: AxiProt.NONSECURE length: 4
INFO     cocotb:simulator.py:302   1216.00ns INFO     cocotb.tx_scheduler_w.s_axil       Read complete addr: 0x00000068 prot: AxiProt.NONSECURE resp: AxiResp.OKAY data: 01 00 00 00
INFO     cocotb:simulator.py:302   1216.00ns INFO     cocotb.tx_scheduler_w.s_axil       Write start addr: 0x0000006c prot: AxiProt.NONSECURE data: 01 00 00 00
INFO     cocotb:simulator.py:302   1236.00ns INFO     cocotb.tx_scheduler_w.s_axil       Write complete addr: 0x0000006c prot: AxiProt.NONSECURE resp: AxiResp.OKAY length: 4
INFO     cocotb:simulator.py:302   1236.00ns INFO     cocotb.tx_scheduler_w.s_axil       Read start addr: 0x0000006c prot: AxiProt.NONSECURE length: 4
INFO     cocotb:simulator.py:302   1256.00ns INFO     cocotb.tx_scheduler_w.s_axil       Read complete addr: 0x0000006c prot: AxiProt.NONSECURE resp: AxiResp.OKAY data: 01 00 00 00
INFO     cocotb:simulator.py:302   1256.00ns INFO     cocotb.tx_scheduler_w.s_axil       Write start addr: 0x00000070 prot: AxiProt.NONSECURE data: 01 00 00 00
INFO     cocotb:simulator.py:302   1276.00ns INFO     cocotb.tx_scheduler_w.s_axil       Write complete addr: 0x00000070 prot: AxiProt.NONSECURE resp: AxiResp.OKAY length: 4
INFO     cocotb:simulator.py:302   1276.00ns INFO     cocotb.tx_scheduler_w.s_axil       Read start addr: 0x00000070 prot: AxiProt.NONSECURE length: 4
INFO     cocotb:simulator.py:302   1296.00ns INFO     cocotb.tx_scheduler_w.s_axil       Read complete addr: 0x00000070 prot: AxiProt.NONSECURE resp: AxiResp.OKAY data: 01 00 00 00
